-- Merging decision tree log ---
manifest
ADDED from /Users/alexanderhamilton/Downloads/lab3-skeleton-android 2/app/src/main/AndroidManifest.xml:2:1-24:12
INJECTED from /Users/alexanderhamilton/Downloads/lab3-skeleton-android 2/app/src/main/AndroidManifest.xml:2:1-24:12
INJECTED from /Users/alexanderhamilton/Downloads/lab3-skeleton-android 2/app/src/main/AndroidManifest.xml:2:1-24:12
INJECTED from /Users/alexanderhamilton/Downloads/lab3-skeleton-android 2/app/src/main/AndroidManifest.xml:2:1-24:12
MERGED from [androidx.core:core-ktx:1.3.2] /Users/alexanderhamilton/.gradle/caches/transforms-2/files-2.1/fada02f50c1eedb98300e9a93d7c2ca8/jetified-core-ktx-1.3.2/AndroidManifest.xml:2:1-9:12
MERGED from [com.google.android.material:material:1.2.1] /Users/alexanderhamilton/.gradle/caches/transforms-2/files-2.1/d656a577c7e00328fa4cd7362edbde1a/material-1.2.1/AndroidManifest.xml:17:1-24:12
MERGED from [androidx.constraintlayout:constraintlayout:2.0.4] /Users/alexanderhamilton/.gradle/caches/transforms-2/files-2.1/203c0ff19ccd35452db7d2233b09af5c/constraintlayout-2.0.4/AndroidManifest.xml:2:1-11:12
MERGED from [androidx.appcompat:appcompat:1.2.0] /Users/alexanderhamilton/.gradle/caches/transforms-2/files-2.1/b73fb7322e7444925cbea31e1914b9f6/appcompat-1.2.0/AndroidManifest.xml:17:1-24:12
MERGED from [androidx.viewpager2:viewpager2:1.0.0] /Users/alexanderhamilton/.gradle/caches/transforms-2/files-2.1/9f5f3194b95c608be065e1171c107431/jetified-viewpager2-1.0.0/AndroidManifest.xml:17:1-24:12
MERGED from [androidx.recyclerview:recyclerview:1.1.0] /Users/alexanderhamilton/.gradle/caches/transforms-2/files-2.1/cb8b83dadbae6152c25007ed9737eef9/recyclerview-1.1.0/AndroidManifest.xml:17:1-24:12
MERGED from [androidx.cardview:cardview:1.0.0] /Users/alexanderhamilton/.gradle/caches/transforms-2/files-2.1/02a3477dc95cd82e191f58ef685a4b0b/cardview-1.0.0/AndroidManifest.xml:17:1-22:12
MERGED from [androidx.fragment:fragment:1.1.0] /Users/alexanderhamilton/.gradle/caches/transforms-2/files-2.1/d50b4899c4fc33965b063c74fa846dec/fragment-1.1.0/AndroidManifest.xml:17:1-24:12
MERGED from [androidx.appcompat:appcompat-resources:1.2.0] /Users/alexanderhamilton/.gradle/caches/transforms-2/files-2.1/7bc2d57c2475223f33f8b8858df03c88/jetified-appcompat-resources-1.2.0/AndroidManifest.xml:17:1-24:12
MERGED from [androidx.drawerlayout:drawerlayout:1.0.0] /Users/alexanderhamilton/.gradle/caches/transforms-2/files-2.1/d4651c7679c6b82753ac57c0e2aed5b9/drawerlayout-1.0.0/AndroidManifest.xml:17:1-22:12
MERGED from [androidx.coordinatorlayout:coordinatorlayout:1.1.0] /Users/alexanderhamilton/.gradle/caches/transforms-2/files-2.1/c154175f44bf262d1ff9b4cb12376258/coordinatorlayout-1.1.0/AndroidManifest.xml:17:1-24:12
MERGED from [androidx.transition:transition:1.2.0] /Users/alexanderhamilton/.gradle/caches/transforms-2/files-2.1/60ed4102ced956f17c8da44e9c0bd545/transition-1.2.0/AndroidManifest.xml:17:1-24:12
MERGED from [androidx.vectordrawable:vectordrawable-animated:1.1.0] /Users/alexanderhamilton/.gradle/caches/transforms-2/files-2.1/6bc1b5b1c52971c7da3413a42d591948/vectordrawable-animated-1.1.0/AndroidManifest.xml:17:1-24:12
MERGED from [androidx.vectordrawable:vectordrawable:1.1.0] /Users/alexanderhamilton/.gradle/caches/transforms-2/files-2.1/88683a56f451b22067073085eecfc5f8/vectordrawable-1.1.0/AndroidManifest.xml:17:1-24:12
MERGED from [androidx.viewpager:viewpager:1.0.0] /Users/alexanderhamilton/.gradle/caches/transforms-2/files-2.1/cc1fbfb44b8654ddd016bafbb9b475f2/viewpager-1.0.0/AndroidManifest.xml:17:1-22:12
MERGED from [androidx.customview:customview:1.0.0] /Users/alexanderhamilton/.gradle/caches/transforms-2/files-2.1/d21176adc8c8bfe7ca741d7ee4e08c31/customview-1.0.0/AndroidManifest.xml:17:1-22:12
MERGED from [androidx.loader:loader:1.0.0] /Users/alexanderhamilton/.gradle/caches/transforms-2/files-2.1/01acd0f49414829c9a03b7ff22775907/loader-1.0.0/AndroidManifest.xml:17:1-22:12
MERGED from [androidx.activity:activity:1.0.0] /Users/alexanderhamilton/.gradle/caches/transforms-2/files-2.1/c9f53cf7fffb1a4b73989e9c0aa97875/jetified-activity-1.0.0/AndroidManifest.xml:17:1-24:12
MERGED from [androidx.core:core:1.3.2] /Users/alexanderhamilton/.gradle/caches/transforms-2/files-2.1/3332427177a0c51858f805d368bea6a9/core-1.3.2/AndroidManifest.xml:17:1-26:12
MERGED from [androidx.cursoradapter:cursoradapter:1.0.0] /Users/alexanderhamilton/.gradle/caches/transforms-2/files-2.1/3be215ead550994cdcab24fdad8d02e4/cursoradapter-1.0.0/AndroidManifest.xml:17:1-22:12
MERGED from [androidx.versionedparcelable:versionedparcelable:1.1.0] /Users/alexanderhamilton/.gradle/caches/transforms-2/files-2.1/46043690ac7d7fc081d194432f7181e6/versionedparcelable-1.1.0/AndroidManifest.xml:17:1-27:12
MERGED from [androidx.lifecycle:lifecycle-runtime:2.1.0] /Users/alexanderhamilton/.gradle/caches/transforms-2/files-2.1/889bb457d2312520119e5f2e3a846c9d/lifecycle-runtime-2.1.0/AndroidManifest.xml:17:1-22:12
MERGED from [androidx.lifecycle:lifecycle-viewmodel:2.1.0] /Users/alexanderhamilton/.gradle/caches/transforms-2/files-2.1/57765d9a6708e2a7b12f66520931eb9e/lifecycle-viewmodel-2.1.0/AndroidManifest.xml:17:1-22:12
MERGED from [androidx.savedstate:savedstate:1.0.0] /Users/alexanderhamilton/.gradle/caches/transforms-2/files-2.1/7c64b55faeaaa8791d6a1a72dd813232/jetified-savedstate-1.0.0/AndroidManifest.xml:17:1-24:12
MERGED from [androidx.interpolator:interpolator:1.0.0] /Users/alexanderhamilton/.gradle/caches/transforms-2/files-2.1/2b5f2305e79f2a9323c269630df88a54/interpolator-1.0.0/AndroidManifest.xml:17:1-22:12
MERGED from [androidx.lifecycle:lifecycle-livedata:2.0.0] /Users/alexanderhamilton/.gradle/caches/transforms-2/files-2.1/a8bba65cada794f9eed71c1ebbb927c9/lifecycle-livedata-2.0.0/AndroidManifest.xml:17:1-22:12
MERGED from [androidx.lifecycle:lifecycle-livedata-core:2.0.0] /Users/alexanderhamilton/.gradle/caches/transforms-2/files-2.1/2747990154e5e8e862126029d78fdfd3/lifecycle-livedata-core-2.0.0/AndroidManifest.xml:17:1-22:12
MERGED from [androidx.arch.core:core-runtime:2.0.0] /Users/alexanderhamilton/.gradle/caches/transforms-2/files-2.1/ebc568f3e8b79f80daf8ef22322ac8f5/core-runtime-2.0.0/AndroidManifest.xml:17:1-22:12
MERGED from [androidx.annotation:annotation-experimental:1.0.0] /Users/alexanderhamilton/.gradle/caches/transforms-2/files-2.1/619cedf6586fcc20ccd7644bfb5f49dd/jetified-annotation-experimental-1.0.0/AndroidManifest.xml:17:1-24:12
INJECTED from /Users/alexanderhamilton/Downloads/lab3-skeleton-android 2/app/src/main/AndroidManifest.xml:2:1-24:12
INJECTED from /Users/alexanderhamilton/Downloads/lab3-skeleton-android 2/app/src/main/AndroidManifest.xml:2:1-24:12
INJECTED from /Users/alexanderhamilton/Downloads/lab3-skeleton-android 2/app/src/main/AndroidManifest.xml:2:1-24:12
	package
		ADDED from /Users/alexanderhamilton/Downloads/lab3-skeleton-android 2/app/src/main/AndroidManifest.xml:3:5-32
		INJECTED from /Users/alexanderhamilton/Downloads/lab3-skeleton-android 2/app/src/main/AndroidManifest.xml
		INJECTED from /Users/alexanderhamilton/Downloads/lab3-skeleton-android 2/app/src/main/AndroidManifest.xml
	android:versionName
		INJECTED from /Users/alexanderhamilton/Downloads/lab3-skeleton-android 2/app/src/main/AndroidManifest.xml
		ADDED from /Users/alexanderhamilton/Downloads/lab3-skeleton-android 2/app/src/main/AndroidManifest.xml:2:1-24:12
		INJECTED from /Users/alexanderhamilton/Downloads/lab3-skeleton-android 2/app/src/main/AndroidManifest.xml
	android:versionCode
		INJECTED from /Users/alexanderhamilton/Downloads/lab3-skeleton-android 2/app/src/main/AndroidManifest.xml
		ADDED from /Users/alexanderhamilton/Downloads/lab3-skeleton-android 2/app/src/main/AndroidManifest.xml:2:1-24:12
		INJECTED from /Users/alexanderhamilton/Downloads/lab3-skeleton-android 2/app/src/main/AndroidManifest.xml
	xmlns:android
		ADDED from /Users/alexanderhamilton/Downloads/lab3-skeleton-android 2/app/src/main/AndroidManifest.xml:2:11-69
application
ADDED from /Users/alexanderhamilton/Downloads/lab3-skeleton-android 2/app/src/main/AndroidManifest.xml:5:5-22:19
MERGED from [com.google.android.material:material:1.2.1] /Users/alexanderhamilton/.gradle/caches/transforms-2/files-2.1/d656a577c7e00328fa4cd7362edbde1a/material-1.2.1/AndroidManifest.xml:22:5-20
MERGED from [com.google.android.material:material:1.2.1] /Users/alexanderhamilton/.gradle/caches/transforms-2/files-2.1/d656a577c7e00328fa4cd7362edbde1a/material-1.2.1/AndroidManifest.xml:22:5-20
MERGED from [androidx.constraintlayout:constraintlayout:2.0.4] /Users/alexanderhamilton/.gradle/caches/transforms-2/files-2.1/203c0ff19ccd35452db7d2233b09af5c/constraintlayout-2.0.4/AndroidManifest.xml:9:5-20
MERGED from [androidx.constraintlayout:constraintlayout:2.0.4] /Users/alexanderhamilton/.gradle/caches/transforms-2/files-2.1/203c0ff19ccd35452db7d2233b09af5c/constraintlayout-2.0.4/AndroidManifest.xml:9:5-20
MERGED from [androidx.core:core:1.3.2] /Users/alexanderhamilton/.gradle/caches/transforms-2/files-2.1/3332427177a0c51858f805d368bea6a9/core-1.3.2/AndroidManifest.xml:24:5-89
MERGED from [androidx.core:core:1.3.2] /Users/alexanderhamilton/.gradle/caches/transforms-2/files-2.1/3332427177a0c51858f805d368bea6a9/core-1.3.2/AndroidManifest.xml:24:5-89
MERGED from [androidx.versionedparcelable:versionedparcelable:1.1.0] /Users/alexanderhamilton/.gradle/caches/transforms-2/files-2.1/46043690ac7d7fc081d194432f7181e6/versionedparcelable-1.1.0/AndroidManifest.xml:24:5-25:19
MERGED from [androidx.versionedparcelable:versionedparcelable:1.1.0] /Users/alexanderhamilton/.gradle/caches/transforms-2/files-2.1/46043690ac7d7fc081d194432f7181e6/versionedparcelable-1.1.0/AndroidManifest.xml:24:5-25:19
	android:appComponentFactory
		ADDED from [androidx.core:core:1.3.2] /Users/alexanderhamilton/.gradle/caches/transforms-2/files-2.1/3332427177a0c51858f805d368bea6a9/core-1.3.2/AndroidManifest.xml:24:18-86
	android:supportsRtl
		ADDED from /Users/alexanderhamilton/Downloads/lab3-skeleton-android 2/app/src/main/AndroidManifest.xml:10:9-35
	android:label
		ADDED from /Users/alexanderhamilton/Downloads/lab3-skeleton-android 2/app/src/main/AndroidManifest.xml:8:9-41
	android:roundIcon
		ADDED from /Users/alexanderhamilton/Downloads/lab3-skeleton-android 2/app/src/main/AndroidManifest.xml:9:9-54
	android:icon
		ADDED from /Users/alexanderhamilton/Downloads/lab3-skeleton-android 2/app/src/main/AndroidManifest.xml:7:9-43
	android:allowBackup
		ADDED from /Users/alexanderhamilton/Downloads/lab3-skeleton-android 2/app/src/main/AndroidManifest.xml:6:9-35
	android:theme
		ADDED from /Users/alexanderhamilton/Downloads/lab3-skeleton-android 2/app/src/main/AndroidManifest.xml:11:9-48
activity#cs.mad.flashcards.adapters.FlashcardSetDetailActivity
ADDED from /Users/alexanderhamilton/Downloads/lab3-skeleton-android 2/app/src/main/AndroidManifest.xml:12:9-14:40
	android:exported
		ADDED from /Users/alexanderhamilton/Downloads/lab3-skeleton-android 2/app/src/main/AndroidManifest.xml:14:13-37
	android:name
		ADDED from /Users/alexanderhamilton/Downloads/lab3-skeleton-android 2/app/src/main/AndroidManifest.xml:13:13-64
activity#cs.mad.flashcards.activities.MainActivity
ADDED from /Users/alexanderhamilton/Downloads/lab3-skeleton-android 2/app/src/main/AndroidManifest.xml:15:9-21:20
	android:name
		ADDED from /Users/alexanderhamilton/Downloads/lab3-skeleton-android 2/app/src/main/AndroidManifest.xml:15:19-58
intent-filter#action:name:android.intent.action.MAIN+category:name:android.intent.category.LAUNCHER
ADDED from /Users/alexanderhamilton/Downloads/lab3-skeleton-android 2/app/src/main/AndroidManifest.xml:16:13-20:29
action#android.intent.action.MAIN
ADDED from /Users/alexanderhamilton/Downloads/lab3-skeleton-android 2/app/src/main/AndroidManifest.xml:17:17-69
	android:name
		ADDED from /Users/alexanderhamilton/Downloads/lab3-skeleton-android 2/app/src/main/AndroidManifest.xml:17:25-66
category#android.intent.category.LAUNCHER
ADDED from /Users/alexanderhamilton/Downloads/lab3-skeleton-android 2/app/src/main/AndroidManifest.xml:19:17-77
	android:name
		ADDED from /Users/alexanderhamilton/Downloads/lab3-skeleton-android 2/app/src/main/AndroidManifest.xml:19:27-74
uses-sdk
INJECTED from /Users/alexanderhamilton/Downloads/lab3-skeleton-android 2/app/src/main/AndroidManifest.xml reason: use-sdk injection requested
INJECTED from /Users/alexanderhamilton/Downloads/lab3-skeleton-android 2/app/src/main/AndroidManifest.xml
INJECTED from /Users/alexanderhamilton/Downloads/lab3-skeleton-android 2/app/src/main/AndroidManifest.xml
MERGED from [androidx.core:core-ktx:1.3.2] /Users/alexanderhamilton/.gradle/caches/transforms-2/files-2.1/fada02f50c1eedb98300e9a93d7c2ca8/jetified-core-ktx-1.3.2/AndroidManifest.xml:5:5-7:41
MERGED from [androidx.core:core-ktx:1.3.2] /Users/alexanderhamilton/.gradle/caches/transforms-2/files-2.1/fada02f50c1eedb98300e9a93d7c2ca8/jetified-core-ktx-1.3.2/AndroidManifest.xml:5:5-7:41
MERGED from [com.google.android.material:material:1.2.1] /Users/alexanderhamilton/.gradle/caches/transforms-2/files-2.1/d656a577c7e00328fa4cd7362edbde1a/material-1.2.1/AndroidManifest.xml:20:5-44
MERGED from [com.google.android.material:material:1.2.1] /Users/alexanderhamilton/.gradle/caches/transforms-2/files-2.1/d656a577c7e00328fa4cd7362edbde1a/material-1.2.1/AndroidManifest.xml:20:5-44
MERGED from [androidx.constraintlayout:constraintlayout:2.0.4] /Users/alexanderhamilton/.gradle/caches/transforms-2/files-2.1/203c0ff19ccd35452db7d2233b09af5c/constraintlayout-2.0.4/AndroidManifest.xml:5:5-7:41
MERGED from [androidx.constraintlayout:constraintlayout:2.0.4] /Users/alexanderhamilton/.gradle/caches/transforms-2/files-2.1/203c0ff19ccd35452db7d2233b09af5c/constraintlayout-2.0.4/AndroidManifest.xml:5:5-7:41
MERGED from [androidx.appcompat:appcompat:1.2.0] /Users/alexanderhamilton/.gradle/caches/transforms-2/files-2.1/b73fb7322e7444925cbea31e1914b9f6/appcompat-1.2.0/AndroidManifest.xml:20:5-22:41
MERGED from [androidx.appcompat:appcompat:1.2.0] /Users/alexanderhamilton/.gradle/caches/transforms-2/files-2.1/b73fb7322e7444925cbea31e1914b9f6/appcompat-1.2.0/AndroidManifest.xml:20:5-22:41
MERGED from [androidx.viewpager2:viewpager2:1.0.0] /Users/alexanderhamilton/.gradle/caches/transforms-2/files-2.1/9f5f3194b95c608be065e1171c107431/jetified-viewpager2-1.0.0/AndroidManifest.xml:20:5-22:41
MERGED from [androidx.viewpager2:viewpager2:1.0.0] /Users/alexanderhamilton/.gradle/caches/transforms-2/files-2.1/9f5f3194b95c608be065e1171c107431/jetified-viewpager2-1.0.0/AndroidManifest.xml:20:5-22:41
MERGED from [androidx.recyclerview:recyclerview:1.1.0] /Users/alexanderhamilton/.gradle/caches/transforms-2/files-2.1/cb8b83dadbae6152c25007ed9737eef9/recyclerview-1.1.0/AndroidManifest.xml:20:5-22:41
MERGED from [androidx.recyclerview:recyclerview:1.1.0] /Users/alexanderhamilton/.gradle/caches/transforms-2/files-2.1/cb8b83dadbae6152c25007ed9737eef9/recyclerview-1.1.0/AndroidManifest.xml:20:5-22:41
MERGED from [androidx.cardview:cardview:1.0.0] /Users/alexanderhamilton/.gradle/caches/transforms-2/files-2.1/02a3477dc95cd82e191f58ef685a4b0b/cardview-1.0.0/AndroidManifest.xml:20:5-44
MERGED from [androidx.cardview:cardview:1.0.0] /Users/alexanderhamilton/.gradle/caches/transforms-2/files-2.1/02a3477dc95cd82e191f58ef685a4b0b/cardview-1.0.0/AndroidManifest.xml:20:5-44
MERGED from [androidx.fragment:fragment:1.1.0] /Users/alexanderhamilton/.gradle/caches/transforms-2/files-2.1/d50b4899c4fc33965b063c74fa846dec/fragment-1.1.0/AndroidManifest.xml:20:5-22:41
MERGED from [androidx.fragment:fragment:1.1.0] /Users/alexanderhamilton/.gradle/caches/transforms-2/files-2.1/d50b4899c4fc33965b063c74fa846dec/fragment-1.1.0/AndroidManifest.xml:20:5-22:41
MERGED from [androidx.appcompat:appcompat-resources:1.2.0] /Users/alexanderhamilton/.gradle/caches/transforms-2/files-2.1/7bc2d57c2475223f33f8b8858df03c88/jetified-appcompat-resources-1.2.0/AndroidManifest.xml:20:5-22:41
MERGED from [androidx.appcompat:appcompat-resources:1.2.0] /Users/alexanderhamilton/.gradle/caches/transforms-2/files-2.1/7bc2d57c2475223f33f8b8858df03c88/jetified-appcompat-resources-1.2.0/AndroidManifest.xml:20:5-22:41
MERGED from [androidx.drawerlayout:drawerlayout:1.0.0] /Users/alexanderhamilton/.gradle/caches/transforms-2/files-2.1/d4651c7679c6b82753ac57c0e2aed5b9/drawerlayout-1.0.0/AndroidManifest.xml:20:5-44
MERGED from [androidx.drawerlayout:drawerlayout:1.0.0] /Users/alexanderhamilton/.gradle/caches/transforms-2/files-2.1/d4651c7679c6b82753ac57c0e2aed5b9/drawerlayout-1.0.0/AndroidManifest.xml:20:5-44
MERGED from [androidx.coordinatorlayout:coordinatorlayout:1.1.0] /Users/alexanderhamilton/.gradle/caches/transforms-2/files-2.1/c154175f44bf262d1ff9b4cb12376258/coordinatorlayout-1.1.0/AndroidManifest.xml:20:5-22:41
MERGED from [androidx.coordinatorlayout:coordinatorlayout:1.1.0] /Users/alexanderhamilton/.gradle/caches/transforms-2/files-2.1/c154175f44bf262d1ff9b4cb12376258/coordinatorlayout-1.1.0/AndroidManifest.xml:20:5-22:41
MERGED from [androidx.transition:transition:1.2.0] /Users/alexanderhamilton/.gradle/caches/transforms-2/files-2.1/60ed4102ced956f17c8da44e9c0bd545/transition-1.2.0/AndroidManifest.xml:20:5-22:41
MERGED from [androidx.transition:transition:1.2.0] /Users/alexanderhamilton/.gradle/caches/transforms-2/files-2.1/60ed4102ced956f17c8da44e9c0bd545/transition-1.2.0/AndroidManifest.xml:20:5-22:41
MERGED from [androidx.vectordrawable:vectordrawable-animated:1.1.0] /Users/alexanderhamilton/.gradle/caches/transforms-2/files-2.1/6bc1b5b1c52971c7da3413a42d591948/vectordrawable-animated-1.1.0/AndroidManifest.xml:20:5-22:41
MERGED from [androidx.vectordrawable:vectordrawable-animated:1.1.0] /Users/alexanderhamilton/.gradle/caches/transforms-2/files-2.1/6bc1b5b1c52971c7da3413a42d591948/vectordrawable-animated-1.1.0/AndroidManifest.xml:20:5-22:41
MERGED from [androidx.vectordrawable:vectordrawable:1.1.0] /Users/alexanderhamilton/.gradle/caches/transforms-2/files-2.1/88683a56f451b22067073085eecfc5f8/vectordrawable-1.1.0/AndroidManifest.xml:20:5-22:41
MERGED from [androidx.vectordrawable:vectordrawable:1.1.0] /Users/alexanderhamilton/.gradle/caches/transforms-2/files-2.1/88683a56f451b22067073085eecfc5f8/vectordrawable-1.1.0/AndroidManifest.xml:20:5-22:41
MERGED from [androidx.viewpager:viewpager:1.0.0] /Users/alexanderhamilton/.gradle/caches/transforms-2/files-2.1/cc1fbfb44b8654ddd016bafbb9b475f2/viewpager-1.0.0/AndroidManifest.xml:20:5-44
MERGED from [androidx.viewpager:viewpager:1.0.0] /Users/alexanderhamilton/.gradle/caches/transforms-2/files-2.1/cc1fbfb44b8654ddd016bafbb9b475f2/viewpager-1.0.0/AndroidManifest.xml:20:5-44
MERGED from [androidx.customview:customview:1.0.0] /Users/alexanderhamilton/.gradle/caches/transforms-2/files-2.1/d21176adc8c8bfe7ca741d7ee4e08c31/customview-1.0.0/AndroidManifest.xml:20:5-44
MERGED from [androidx.customview:customview:1.0.0] /Users/alexanderhamilton/.gradle/caches/transforms-2/files-2.1/d21176adc8c8bfe7ca741d7ee4e08c31/customview-1.0.0/AndroidManifest.xml:20:5-44
MERGED from [androidx.loader:loader:1.0.0] /Users/alexanderhamilton/.gradle/caches/transforms-2/files-2.1/01acd0f49414829c9a03b7ff22775907/loader-1.0.0/AndroidManifest.xml:20:5-44
MERGED from [androidx.loader:loader:1.0.0] /Users/alexanderhamilton/.gradle/caches/transforms-2/files-2.1/01acd0f49414829c9a03b7ff22775907/loader-1.0.0/AndroidManifest.xml:20:5-44
MERGED from [androidx.activity:activity:1.0.0] /Users/alexanderhamilton/.gradle/caches/transforms-2/files-2.1/c9f53cf7fffb1a4b73989e9c0aa97875/jetified-activity-1.0.0/AndroidManifest.xml:20:5-22:41
MERGED from [androidx.activity:activity:1.0.0] /Users/alexanderhamilton/.gradle/caches/transforms-2/files-2.1/c9f53cf7fffb1a4b73989e9c0aa97875/jetified-activity-1.0.0/AndroidManifest.xml:20:5-22:41
MERGED from [androidx.core:core:1.3.2] /Users/alexanderhamilton/.gradle/caches/transforms-2/files-2.1/3332427177a0c51858f805d368bea6a9/core-1.3.2/AndroidManifest.xml:20:5-22:41
MERGED from [androidx.core:core:1.3.2] /Users/alexanderhamilton/.gradle/caches/transforms-2/files-2.1/3332427177a0c51858f805d368bea6a9/core-1.3.2/AndroidManifest.xml:20:5-22:41
MERGED from [androidx.cursoradapter:cursoradapter:1.0.0] /Users/alexanderhamilton/.gradle/caches/transforms-2/files-2.1/3be215ead550994cdcab24fdad8d02e4/cursoradapter-1.0.0/AndroidManifest.xml:20:5-44
MERGED from [androidx.cursoradapter:cursoradapter:1.0.0] /Users/alexanderhamilton/.gradle/caches/transforms-2/files-2.1/3be215ead550994cdcab24fdad8d02e4/cursoradapter-1.0.0/AndroidManifest.xml:20:5-44
MERGED from [androidx.versionedparcelable:versionedparcelable:1.1.0] /Users/alexanderhamilton/.gradle/caches/transforms-2/files-2.1/46043690ac7d7fc081d194432f7181e6/versionedparcelable-1.1.0/AndroidManifest.xml:20:5-22:41
MERGED from [androidx.versionedparcelable:versionedparcelable:1.1.0] /Users/alexanderhamilton/.gradle/caches/transforms-2/files-2.1/46043690ac7d7fc081d194432f7181e6/versionedparcelable-1.1.0/AndroidManifest.xml:20:5-22:41
MERGED from [androidx.lifecycle:lifecycle-runtime:2.1.0] /Users/alexanderhamilton/.gradle/caches/transforms-2/files-2.1/889bb457d2312520119e5f2e3a846c9d/lifecycle-runtime-2.1.0/AndroidManifest.xml:20:5-44
MERGED from [androidx.lifecycle:lifecycle-runtime:2.1.0] /Users/alexanderhamilton/.gradle/caches/transforms-2/files-2.1/889bb457d2312520119e5f2e3a846c9d/lifecycle-runtime-2.1.0/AndroidManifest.xml:20:5-44
MERGED from [androidx.lifecycle:lifecycle-viewmodel:2.1.0] /Users/alexanderhamilton/.gradle/caches/transforms-2/files-2.1/57765d9a6708e2a7b12f66520931eb9e/lifecycle-viewmodel-2.1.0/AndroidManifest.xml:20:5-44
MERGED from [androidx.lifecycle:lifecycle-viewmodel:2.1.0] /Users/alexanderhamilton/.gradle/caches/transforms-2/files-2.1/57765d9a6708e2a7b12f66520931eb9e/lifecycle-viewmodel-2.1.0/AndroidManifest.xml:20:5-44
MERGED from [androidx.savedstate:savedstate:1.0.0] /Users/alexanderhamilton/.gradle/caches/transforms-2/files-2.1/7c64b55faeaaa8791d6a1a72dd813232/jetified-savedstate-1.0.0/AndroidManifest.xml:20:5-22:41
MERGED from [androidx.savedstate:savedstate:1.0.0] /Users/alexanderhamilton/.gradle/caches/transforms-2/files-2.1/7c64b55faeaaa8791d6a1a72dd813232/jetified-savedstate-1.0.0/AndroidManifest.xml:20:5-22:41
MERGED from [androidx.interpolator:interpolator:1.0.0] /Users/alexanderhamilton/.gradle/caches/transforms-2/files-2.1/2b5f2305e79f2a9323c269630df88a54/interpolator-1.0.0/AndroidManifest.xml:20:5-44
MERGED from [androidx.interpolator:interpolator:1.0.0] /Users/alexanderhamilton/.gradle/caches/transforms-2/files-2.1/2b5f2305e79f2a9323c269630df88a54/interpolator-1.0.0/AndroidManifest.xml:20:5-44
MERGED from [androidx.lifecycle:lifecycle-livedata:2.0.0] /Users/alexanderhamilton/.gradle/caches/transforms-2/files-2.1/a8bba65cada794f9eed71c1ebbb927c9/lifecycle-livedata-2.0.0/AndroidManifest.xml:20:5-44
MERGED from [androidx.lifecycle:lifecycle-livedata:2.0.0] /Users/alexanderhamilton/.gradle/caches/transforms-2/files-2.1/a8bba65cada794f9eed71c1ebbb927c9/lifecycle-livedata-2.0.0/AndroidManifest.xml:20:5-44
MERGED from [androidx.lifecycle:lifecycle-livedata-core:2.0.0] /Users/alexanderhamilton/.gradle/caches/transforms-2/files-2.1/2747990154e5e8e862126029d78fdfd3/lifecycle-livedata-core-2.0.0/AndroidManifest.xml:20:5-44
MERGED from [androidx.lifecycle:lifecycle-livedata-core:2.0.0] /Users/alexanderhamilton/.gradle/caches/transforms-2/files-2.1/2747990154e5e8e862126029d78fdfd3/lifecycle-livedata-core-2.0.0/AndroidManifest.xml:20:5-44
MERGED from [androidx.arch.core:core-runtime:2.0.0] /Users/alexanderhamilton/.gradle/caches/transforms-2/files-2.1/ebc568f3e8b79f80daf8ef22322ac8f5/core-runtime-2.0.0/AndroidManifest.xml:20:5-44
MERGED from [androidx.arch.core:core-runtime:2.0.0] /Users/alexanderhamilton/.gradle/caches/transforms-2/files-2.1/ebc568f3e8b79f80daf8ef22322ac8f5/core-runtime-2.0.0/AndroidManifest.xml:20:5-44
MERGED from [androidx.annotation:annotation-experimental:1.0.0] /Users/alexanderhamilton/.gradle/caches/transforms-2/files-2.1/619cedf6586fcc20ccd7644bfb5f49dd/jetified-annotation-experimental-1.0.0/AndroidManifest.xml:20:5-22:41
MERGED from [androidx.annotation:annotation-experimental:1.0.0] /Users/alexanderhamilton/.gradle/caches/transforms-2/files-2.1/619cedf6586fcc20ccd7644bfb5f49dd/jetified-annotation-experimental-1.0.0/AndroidManifest.xml:20:5-22:41
INJECTED from /Users/alexanderhamilton/Downloads/lab3-skeleton-android 2/app/src/main/AndroidManifest.xml
INJECTED from /Users/alexanderhamilton/Downloads/lab3-skeleton-android 2/app/src/main/AndroidManifest.xml
	android:targetSdkVersion
		INJECTED from /Users/alexanderhamilton/Downloads/lab3-skeleton-android 2/app/src/main/AndroidManifest.xml
		ADDED from /Users/alexanderhamilton/Downloads/lab3-skeleton-android 2/app/src/main/AndroidManifest.xml
		INJECTED from /Users/alexanderhamilton/Downloads/lab3-skeleton-android 2/app/src/main/AndroidManifest.xml
	android:minSdkVersion
		INJECTED from /Users/alexanderhamilton/Downloads/lab3-skeleton-android 2/app/src/main/AndroidManifest.xml
		ADDED from /Users/alexanderhamilton/Downloads/lab3-skeleton-android 2/app/src/main/AndroidManifest.xml
		INJECTED from /Users/alexanderhamilton/Downloads/lab3-skeleton-android 2/app/src/main/AndroidManifest.xml
